.......................
----------------------------------------------------------------------
Ran 23 tests in 0.019s

OK
Name             Stmts   Miss Branch BrPart  Cover   Missing
------------------------------------------------------------
Collatz.py          65      0     30      0   100%
TestCollatz.py     100      0      0      0   100%
------------------------------------------------------------
TOTAL              165      0     30      0   100%
