5825 7501 262
2275 872 183
9848 7860 260
6552 3464 262
229 5883 238
2242 7795 262
948 1520 182
1608 3027 217
7770 3856 262
97 7394 262
9927 5707 262
1634 8587 262
7173 9556 260
4222 8189 262
5532 4401 210
5428 7696 262
392 8883 262
8879 7132 252
113 6600 262
2659 9163 262
1256 6600 262
687 1481 182
7767 6088 262
5323 7481 262
6712 6390 244
3680 3666 163
3016 7971 262
2684 1607 209
8707 3928 262
5961 1776 238
399 552 142
4837 9479 262
7942 7919 146
5499 892 238
2975 3656 199
6859 9091 257
2506 6227 262
3709 6522 262
6436 1134 262
4267 9087 262
2799 9337 262
2232 3656 217
238 889 179
5140 4134 215
4605 3101 238
6439 2291 262
2948 459 217
4389 3355 238
8021 3193 262
9098 1894 262
8102 7692 252
380 1484 182
9699 8050 260
7274 7240 164
5895 5546 236
8952 6942 257
1202 7761 262
6740 420 262
8061 7334 252
180 6398 262
40 8131 262
3357 4920 238
7323 4415 262
5706 5758 174
6770 7470 257
654 3309 217
6684 5633 262
3955 8280 262
9774 9251 260
9084 7103 252
9635 459 262
3600 6876 262
3431 6721 262
8361 7679 252
2793 6630 262
9043 3210 262
8116 1620 262
7824 6435 257
4082 7565 262
3651 5915 238
8775 916 262
2301 7967 262
1321 1848 180
3579 3351 194
4267 4070 202
7256 379 262
9062 9095 185
8953 60 262
3670 5182 238
2461 2881 209
1127 5267 238
8077 497 262
7315 9192 252
2271 9322 262
6457 597 262
2162 5121 238
7017 8231 252
9998 8830 260
9090 903 262
6663 4341 262
9554 3113 262
4472 2869 238
9853 4779 262
2880 5312 238
1269 5284 238
3458 6148 238
2641 1932 209
9202 5952 262
6104 3877 236
6981 7084 195
660 2164 182
3945 1007 238
8053 589 262
8392 724 262
9192 4369 262
8579 2210 262
7129 3247 262
4776 8925 262
3946 5576 236
923 3444 217
9118 747 262
455 8518 262
475 2344 183
6910 8836 257
7303 3859 262
2340 6653 262
4972 1260 238
2752 4309 238
2521 2879 191
2661 4781 238
8877 3838 262
4922 4642 197
2245 667 183
1151 4281 238
5000 6826 262
1476 266 182
4608 5414 210
2943 9061 262
6705 2403 262
1048 2469 209
1468 9236 262
9606 8923 260
2115 8154 262
2590 4255 238
1574 1004 182
6438 1010 262
6814 8328 257
626 3314 217
7746 6404 257
5363 8328 262
4630 3473 238
2135 4515 238
4053 4483 215
2064 842 182
4137 4571 215
8578 8167 234
8838 921 262
8624 7486 252
875 8143 262
3748 2881 238
1959 4487 238
8012 137 262
9286 9087 260
1756 8312 262
5288 2372 238
6869 660 262
2578 8927 262
9516 9898 242
8446 2996 262
4007 2168 238
8205 75 262
3985 2870 238
2019 8238 262
8463 51 262
784 9050 262
3902 5112 215
2238 6105 238
858 8613 262
7695 3719 262
4853 3474 238
3232 3033 199
1525 44 182
9050 5018 262
1874 2283 183
602 5127 238
3937 4063 189
829 7066 262
5668 9478 262
9728 595 262
6619 9851 260
4638 4600 153
9029 5351 262
9273 5781 262
1565 6993 262
3125 8723 262
8460 277 262
271 1190 182
5640 8708 262
2419 5545 238
8366 8997 247
