......................
----------------------------------------------------------------------
Ran 22 tests in 0.413s

OK
Name             Stmts   Miss Branch BrPart  Cover   Missing
------------------------------------------------------------
Collatz.py          51      0     22      0   100%
TestCollatz.py      87      0      0      0   100%
------------------------------------------------------------
TOTAL              138      0     22      0   100%
